[
    {
        "_name": "Bondra",
        "_password": "123456",
        "_role": "admin",
        "_isLogin": true
    },
    {
        "_name": "Abduh",
        "_password": "123456",
        "_role": "trainer",
        "_isLogin": false
    },
    {
        "_name": "Iqbal",
        "_password": "123456",
        "_role": "trainer",
        "_isLogin": false,
        "_students":
        [
            {
                "name": "Dudung"
            },
            {
                "name": "Jamilah"
            },
            {
                "name": "Regy"
            }
        ]
    }
]